7 Barycentric Centroid of Balance – Causal Inference with Counterfactuals and Optimal Transport
…
# Assign each source point to the target it contributes the most mass to
assignment <- max.col(mass_matrix, ties.method = "first")

colnames(samples) <- c("A", "B", "C")

samples_dirichlet_p <- 
  as_tibble(samples) |> 
  mutate(category = colnames(samples)[assignment])
samples_dirichlet_p

# A tibble: 1,000 × 4
        A     B      C category
    <dbl> <dbl>  <dbl> <chr>   
 1 0.101  0.837 0.0615 B       
 2 0.120  0.642 0.238  B       
 3 0.0520 0.235 0.713  C       
 4 0.196  0.537 0.267  A       
 5 0.0715 0.611 0.317  B       
 6 0.200  0.497 0.303  A       
 7 0.0943 0.804 0.101  B       
 8 0.0851 0.498 0.417  C       
 9 0.124  0.452 0.424  C       
10 0.232  0.542 0.226  A       
# ℹ 990 more rows
…
