3 Counterfactuals for Categorical Features – Causal Inference with Counterfactuals and Optimal Transport
…
tb_sample_z_1 <- tb_sample_z
tb_sample_z_1

# A tibble: 200 × 4
        A     B      C group
    <dbl> <dbl>  <dbl> <fct>
 1 0.668  0.243 0.0888 0    
 2 0.112  0.618 0.270  0    
 3 0.214  0.571 0.215  0    
 4 0.286  0.566 0.148  0    
 5 0.0988 0.204 0.697  0    
 6 0.224  0.495 0.281  0    
 7 0.373  0.542 0.0851 0    
 8 0.735  0.195 0.0703 0    
 9 0.257  0.517 0.227  0    
10 0.104  0.758 0.138  0    
# ℹ 190 more rows
…
tb_sample_z_2 <- tb_sample_z
tb_sample_z_2

# A tibble: 200 × 4
        A     B      C group
    <dbl> <dbl>  <dbl> <fct>
 1 0.732  0.162 0.106  0    
 2 0.0438 0.910 0.0462 0    
 3 0.144  0.772 0.0841 0    
 4 0.208  0.638 0.153  0    
 5 0.0477 0.414 0.538  0    
 6 0.0319 0.847 0.121  0    
 7 0.873  0.115 0.0118 0    
 8 0.789  0.107 0.104  0    
 9 0.265  0.627 0.108  0    
10 0.0946 0.803 0.102  0    
# ℹ 190 more rows
…
