9 Optimal Transport on Label-Encoded Variables – Sequential Transport for Causal Mediation Analysis
…
tb_sample_z_1 <- tb_sample_z
tb_sample_z_1

# A tibble: 200 × 4
        A      B      C group
    <dbl>  <dbl>  <dbl> <fct>
 1 0.222  0.645  0.134  0    
 2 0.241  0.0742 0.685  0    
 3 0.214  0.571  0.215  0    
 4 0.700  0.247  0.0526 0    
 5 0.332  0.242  0.426  0    
 6 0.224  0.495  0.281  0    
 7 0.213  0.607  0.180  0    
 8 0.735  0.195  0.0703 0    
 9 0.0230 0.156  0.821  0    
10 0.0454 0.456  0.499  0    
# ℹ 190 more rows
…
tb_sample_z_2 <- tb_sample_z
tb_sample_z_2

# A tibble: 200 × 4
        A      B      C group
    <dbl>  <dbl>  <dbl> <fct>
 1 0.147  0.824  0.0293 0    
 2 0.0545 0.108  0.837  0    
 3 0.144  0.772  0.0841 0    
 4 0.681  0.151  0.168  0    
 5 0.782  0.110  0.108  0    
 6 0.0319 0.847  0.121  0    
 7 0.196  0.751  0.0535 0    
 8 0.789  0.107  0.104  0    
 9 0.203  0.0894 0.708  0    
10 0.0776 0.0739 0.849  0    
# ℹ 190 more rows
…
